{
    "data": [
        {
            "id": "o3v8x9",
            "url": "https:\/\/wallhaven.cc\/w\/o3v8x9",
            "short_url": "https:\/\/whvn.cc\/o3v8x9",
            "views": 5,
            "favorites": 0,
            "source": "https:\/\/www.pixiv.net\/artworks\/53124915",
            "purity": "sfw",
            "category": "anime",
            "dimension_x": 902,
            "dimension_y": 1286,
            "resolution": "902x1286",
            "ratio": "0.7",
            "file_size": 275333,
            "file_type": "image\/jpeg",
            "created_at": "2022-02-19 23:56:35",
            "colors": [
                "#ffffff",
                "#424153",
                "#999999",
                "#663399",
                "#333399"
            ],
            "path": "https:\/\/w.wallhaven.cc\/full\/o3\/wallhaven-o3v8x9.jpg",
            "thumbs": {
                "large": "https:\/\/th.wallhaven.cc\/lg\/o3\/o3v8x9.jpg",
                "original": "https:\/\/th.wallhaven.cc\/orig\/o3\/o3v8x9.jpg",
                "small": "https:\/\/th.wallhaven.cc\/small\/o3\/o3v8x9.jpg"
            }
        },
        {
            "id": "g7xgj3",
            "url": "https:\/\/wallhaven.cc\/w\/g7xgj3",
            "short_url": "https:\/\/whvn.cc\/g7xgj3",
            "views": 5,
            "favorites": 1,
            "source": "https:\/\/www.pixiv.net\/artworks\/54023306",
            "purity": "sfw",
            "category": "anime",
            "dimension_x": 1583,
            "dimension_y": 2173,
            "resolution": "1583x2173",
            "ratio": "0.73",
            "file_size": 916374,
            "file_type": "image\/jpeg",
            "created_at": "2022-02-19 23:47:17",
            "colors": [
                "#e7d8b1",
                "#ffffff",
                "#999999",
                "#cc6633",
                "#cccccc"
            ],
            "path": "https:\/\/w.wallhaven.cc\/full\/g7\/wallhaven-g7xgj3.jpg",
            "thumbs": {
                "large": "https:\/\/th.wallhaven.cc\/lg\/g7\/g7xgj3.jpg",
                "original": "https:\/\/th.wallhaven.cc\/orig\/g7\/g7xgj3.jpg",
                "small": "https:\/\/th.wallhaven.cc\/small\/g7\/g7xgj3.jpg"
            }
        },
        {
            "id": "l3vpql",
            "url": "https:\/\/wallhaven.cc\/w\/l3vpql",
            "short_url": "https:\/\/whvn.cc\/l3vpql",
            "views": 8,
            "favorites": 0,
            "source": "https:\/\/i.pximg.net\/img-original\/img\/2021\/02\/05\/22\/11\/04\/87553563_p4.jpg",
            "purity": "sfw",
            "category": "anime",
            "dimension_x": 3150,
            "dimension_y": 2700,
            "resolution": "3150x2700",
            "ratio": "1.17",
            "file_size": 771102,
            "file_type": "image\/jpeg",
            "created_at": "2022-02-19 23:20:04",
            "colors": [
                "#000000",
                "#424153",
                "#663300",
                "#996633",
                "#ffffff"
            ],
            "path": "https:\/\/w.wallhaven.cc\/full\/l3\/wallhaven-l3vpql.jpg",
            "thumbs": {
                "large": "https:\/\/th.wallhaven.cc\/lg\/l3\/l3vpql.jpg",
                "original": "https:\/\/th.wallhaven.cc\/orig\/l3\/l3vpql.jpg",
                "small": "https:\/\/th.wallhaven.cc\/small\/l3\/l3vpql.jpg"
            }
        },
        {
            "id": "y83ojd",
            "url": "https:\/\/wallhaven.cc\/w\/y83ojd",
            "short_url": "https:\/\/whvn.cc\/y83ojd",
            "views": 4,
            "favorites": 0,
            "source": "https:\/\/www.pixiv.net\/artworks\/93663664",
            "purity": "sfw",
            "category": "anime",
            "dimension_x": 2400,
            "dimension_y": 3200,
            "resolution": "2400x3200",
            "ratio": "0.75",
            "file_size": 5791416,
            "file_type": "image\/png",
            "created_at": "2022-02-19 23:16:49",
            "colors": [
                "#e7d8b1",
                "#999999",
                "#996633",
                "#cccccc",
                "#ffffff"
            ],
            "path": "https:\/\/w.wallhaven.cc\/full\/y8\/wallhaven-y83ojd.png",
            "thumbs": {
                "large": "https:\/\/th.wallhaven.cc\/lg\/y8\/y83ojd.jpg",
                "original": "https:\/\/th.wallhaven.cc\/orig\/y8\/y83ojd.jpg",
                "small": "https:\/\/th.wallhaven.cc\/small\/y8\/y83ojd.jpg"
            }
        },
        {
            "id": "g7xgje",
            "url": "https:\/\/wallhaven.cc\/w\/g7xgje",
            "short_url": "https:\/\/whvn.cc\/g7xgje",
            "views": 10,
            "favorites": 1,
            "source": "",
            "purity": "sfw",
            "category": "anime",
            "dimension_x": 1080,
            "dimension_y": 1920,
            "resolution": "1080x1920",
            "ratio": "0.56",
            "file_size": 1603007,
            "file_type": "image\/png",
            "created_at": "2022-02-19 23:04:21",
            "colors": [
                "#e7d8b1",
                "#999999",
                "#cccccc",
                "#996633",
                "#ffffff"
            ],
            "path": "https:\/\/w.wallhaven.cc\/full\/g7\/wallhaven-g7xgje.png",
            "thumbs": {
                "large": "https:\/\/th.wallhaven.cc\/lg\/g7\/g7xgje.jpg",
                "original": "https:\/\/th.wallhaven.cc\/orig\/g7\/g7xgje.jpg",
                "small": "https:\/\/th.wallhaven.cc\/small\/g7\/g7xgje.jpg"
            }
        },
        {
            "id": "j3q78p",
            "url": "https:\/\/wallhaven.cc\/w\/j3q78p",
            "short_url": "https:\/\/whvn.cc\/j3q78p",
            "views": 11,
            "favorites": 4,
            "source": "https:\/\/www.pixiv.net\/artworks\/82330452",
            "purity": "sfw",
            "category": "anime",
            "dimension_x": 1414,
            "dimension_y": 2000,
            "resolution": "1414x2000",
            "ratio": "0.71",
            "file_size": 2250968,
            "file_type": "image\/jpeg",
            "created_at": "2022-02-19 22:18:00",
            "colors": [
                "#424153",
                "#999999",
                "#cccccc",
                "#abbcda",
                "#ffffff"
            ],
            "path": "https:\/\/w.wallhaven.cc\/full\/j3\/wallhaven-j3q78p.jpg",
            "thumbs": {
                "large": "https:\/\/th.wallhaven.cc\/lg\/j3\/j3q78p.jpg",
                "original": "https:\/\/th.wallhaven.cc\/orig\/j3\/j3q78p.jpg",
                "small": "https:\/\/th.wallhaven.cc\/small\/j3\/j3q78p.jpg"
            }
        },
        {
            "id": "3zyjky",
            "url": "https:\/\/wallhaven.cc\/w\/3zyjky",
            "short_url": "https:\/\/whvn.cc\/3zyjky",
            "views": 60,
            "favorites": 3,
            "source": "https:\/\/www.reddit.com\/r\/EarthPorn\/comments\/sri0t3\/so_many_years_later_and_this_one_is_still_hard\/",
            "purity": "sfw",
            "category": "general",
            "dimension_x": 3150,
            "dimension_y": 2520,
            "resolution": "3150x2520",
            "ratio": "1.25",
            "file_size": 1499256,
            "file_type": "image\/jpeg",
            "created_at": "2022-02-19 22:08:29",
            "colors": [
                "#000000",
                "#663300",
                "#e7d8b1",
                "#999999",
                "#424153"
            ],
            "path": "https:\/\/w.wallhaven.cc\/full\/3z\/wallhaven-3zyjky.jpg",
            "thumbs": {
                "large": "https:\/\/th.wallhaven.cc\/lg\/3z\/3zyjky.jpg",
                "original": "https:\/\/th.wallhaven.cc\/orig\/3z\/3zyjky.jpg",
                "small": "https:\/\/th.wallhaven.cc\/small\/3z\/3zyjky.jpg"
            }
        },
        {
            "id": "1kwyj1",
            "url": "https:\/\/wallhaven.cc\/w\/1kwyj1",
            "short_url": "https:\/\/whvn.cc\/1kwyj1",
            "views": 81,
            "favorites": 7,
            "source": "https:\/\/twitter.com\/sky_freedom_",
            "purity": "sfw",
            "category": "anime",
            "dimension_x": 2560,
            "dimension_y": 1440,
            "resolution": "2560x1440",
            "ratio": "1.78",
            "file_size": 659660,
            "file_type": "image\/png",
            "created_at": "2022-02-19 21:54:27",
            "colors": [
                "#ffffff",
                "#424153",
                "#cccccc",
                "#999999",
                "#663399"
            ],
            "path": "https:\/\/w.wallhaven.cc\/full\/1k\/wallhaven-1kwyj1.png",
            "thumbs": {
                "large": "https:\/\/th.wallhaven.cc\/lg\/1k\/1kwyj1.jpg",
                "original": "https:\/\/th.wallhaven.cc\/orig\/1k\/1kwyj1.jpg",
                "small": "https:\/\/th.wallhaven.cc\/small\/1k\/1kwyj1.jpg"
            }
        },
        {
            "id": "j3q79p",
            "url": "https:\/\/wallhaven.cc\/w\/j3q79p",
            "short_url": "https:\/\/whvn.cc\/j3q79p",
            "views": 75,
            "favorites": 1,
            "source": "",
            "purity": "sfw",
            "category": "general",
            "dimension_x": 1920,
            "dimension_y": 1200,
            "resolution": "1920x1200",
            "ratio": "1.6",
            "file_size": 4590398,
            "file_type": "image\/png",
            "created_at": "2022-02-19 18:58:49",
            "colors": [
                "#424153",
                "#000000",
                "#996633",
                "#663300",
                "#999999"
            ],
            "path": "https:\/\/w.wallhaven.cc\/full\/j3\/wallhaven-j3q79p.png",
            "thumbs": {
                "large": "https:\/\/th.wallhaven.cc\/lg\/j3\/j3q79p.jpg",
                "original": "https:\/\/th.wallhaven.cc\/orig\/j3\/j3q79p.jpg",
                "small": "https:\/\/th.wallhaven.cc\/small\/j3\/j3q79p.jpg"
            }
        },
        {
            "id": "l3vp9p",
            "url": "https:\/\/wallhaven.cc\/w\/l3vp9p",
            "short_url": "https:\/\/whvn.cc\/l3vp9p",
            "views": 95,
            "favorites": 0,
            "source": "",
            "purity": "sfw",
            "category": "general",
            "dimension_x": 1920,
            "dimension_y": 1200,
            "resolution": "1920x1200",
            "ratio": "1.6",
            "file_size": 3739068,
            "file_type": "image\/png",
            "created_at": "2022-02-19 18:58:49",
            "colors": [
                "#000000",
                "#663300",
                "#424153",
                "#996633",
                "#666600"
            ],
            "path": "https:\/\/w.wallhaven.cc\/full\/l3\/wallhaven-l3vp9p.png",
            "thumbs": {
                "large": "https:\/\/th.wallhaven.cc\/lg\/l3\/l3vp9p.jpg",
                "original": "https:\/\/th.wallhaven.cc\/orig\/l3\/l3vp9p.jpg",
                "small": "https:\/\/th.wallhaven.cc\/small\/l3\/l3vp9p.jpg"
            }
        },
        {
            "id": "g7xgze",
            "url": "https:\/\/wallhaven.cc\/w\/g7xgze",
            "short_url": "https:\/\/whvn.cc\/g7xgze",
            "views": 163,
            "favorites": 1,
            "source": "",
            "purity": "sfw",
            "category": "general",
            "dimension_x": 1920,
            "dimension_y": 1200,
            "resolution": "1920x1200",
            "ratio": "1.6",
            "file_size": 4748996,
            "file_type": "image\/png",
            "created_at": "2022-02-19 18:58:49",
            "colors": [
                "#000000",
                "#e7d8b1",
                "#999999",
                "#663300",
                "#996633"
            ],
            "path": "https:\/\/w.wallhaven.cc\/full\/g7\/wallhaven-g7xgze.png",
            "thumbs": {
                "large": "https:\/\/th.wallhaven.cc\/lg\/g7\/g7xgze.jpg",
                "original": "https:\/\/th.wallhaven.cc\/orig\/g7\/g7xgze.jpg",
                "small": "https:\/\/th.wallhaven.cc\/small\/g7\/g7xgze.jpg"
            }
        },
        {
            "id": "o3v89p",
            "url": "https:\/\/wallhaven.cc\/w\/o3v89p",
            "short_url": "https:\/\/whvn.cc\/o3v89p",
            "views": 45,
            "favorites": 0,
            "source": "",
            "purity": "sfw",
            "category": "general",
            "dimension_x": 1920,
            "dimension_y": 1200,
            "resolution": "1920x1200",
            "ratio": "1.6",
            "file_size": 4821653,
            "file_type": "image\/png",
            "created_at": "2022-02-19 18:58:49",
            "colors": [
                "#424153",
                "#000000",
                "#999999",
                "#996633",
                "#cccccc"
            ],
            "path": "https:\/\/w.wallhaven.cc\/full\/o3\/wallhaven-o3v89p.png",
            "thumbs": {
                "large": "https:\/\/th.wallhaven.cc\/lg\/o3\/o3v89p.jpg",
                "original": "https:\/\/th.wallhaven.cc\/orig\/o3\/o3v89p.jpg",
                "small": "https:\/\/th.wallhaven.cc\/small\/o3\/o3v89p.jpg"
            }
        },
        {
            "id": "3zyjoy",
            "url": "https:\/\/wallhaven.cc\/w\/3zyjoy",
            "short_url": "https:\/\/whvn.cc\/3zyjoy",
            "views": 129,
            "favorites": 1,
            "source": "",
            "purity": "sfw",
            "category": "general",
            "dimension_x": 1920,
            "dimension_y": 1200,
            "resolution": "1920x1200",
            "ratio": "1.6",
            "file_size": 863363,
            "file_type": "image\/jpeg",
            "created_at": "2022-02-19 18:58:49",
            "colors": [
                "#000000",
                "#999999",
                "#424153",
                "#996633",
                "#cccccc"
            ],
            "path": "https:\/\/w.wallhaven.cc\/full\/3z\/wallhaven-3zyjoy.jpg",
            "thumbs": {
                "large": "https:\/\/th.wallhaven.cc\/lg\/3z\/3zyjoy.jpg",
                "original": "https:\/\/th.wallhaven.cc\/orig\/3z\/3zyjoy.jpg",
                "small": "https:\/\/th.wallhaven.cc\/small\/3z\/3zyjoy.jpg"
            }
        },
        {
            "id": "m9veq8",
            "url": "https:\/\/wallhaven.cc\/w\/m9veq8",
            "short_url": "https:\/\/whvn.cc\/m9veq8",
            "views": 49,
            "favorites": 1,
            "source": "",
            "purity": "sfw",
            "category": "general",
            "dimension_x": 3840,
            "dimension_y": 2160,
            "resolution": "3840x2160",
            "ratio": "1.78",
            "file_size": 388594,
            "file_type": "image\/jpeg",
            "created_at": "2022-02-19 18:58:09",
            "colors": [
                "#000000",
                "#996633",
                "#424153",
                "#660000",
                "#663300"
            ],
            "path": "https:\/\/w.wallhaven.cc\/full\/m9\/wallhaven-m9veq8.jpg",
            "thumbs": {
                "large": "https:\/\/th.wallhaven.cc\/lg\/m9\/m9veq8.jpg",
                "original": "https:\/\/th.wallhaven.cc\/orig\/m9\/m9veq8.jpg",
                "small": "https:\/\/th.wallhaven.cc\/small\/m9\/m9veq8.jpg"
            }
        },
        {
            "id": "e7ploo",
            "url": "https:\/\/wallhaven.cc\/w\/e7ploo",
            "short_url": "https:\/\/whvn.cc\/e7ploo",
            "views": 83,
            "favorites": 2,
            "source": "",
            "purity": "sfw",
            "category": "general",
            "dimension_x": 3840,
            "dimension_y": 2160,
            "resolution": "3840x2160",
            "ratio": "1.78",
            "file_size": 1037300,
            "file_type": "image\/jpeg",
            "created_at": "2022-02-19 18:58:09",
            "colors": [
                "#000000",
                "#424153",
                "#996633",
                "#66cccc",
                "#333399"
            ],
            "path": "https:\/\/w.wallhaven.cc\/full\/e7\/wallhaven-e7ploo.jpg",
            "thumbs": {
                "large": "https:\/\/th.wallhaven.cc\/lg\/e7\/e7ploo.jpg",
                "original": "https:\/\/th.wallhaven.cc\/orig\/e7\/e7ploo.jpg",
                "small": "https:\/\/th.wallhaven.cc\/small\/e7\/e7ploo.jpg"
            }
        },
        {
            "id": "x83g1l",
            "url": "https:\/\/wallhaven.cc\/w\/x83g1l",
            "short_url": "https:\/\/whvn.cc\/x83g1l",
            "views": 103,
            "favorites": 3,
            "source": "",
            "purity": "sfw",
            "category": "general",
            "dimension_x": 3840,
            "dimension_y": 2160,
            "resolution": "3840x2160",
            "ratio": "1.78",
            "file_size": 1806283,
            "file_type": "image\/jpeg",
            "created_at": "2022-02-19 18:58:09",
            "colors": [
                "#000000",
                "#e7d8b1",
                "#424153",
                "#999999",
                "#663300"
            ],
            "path": "https:\/\/w.wallhaven.cc\/full\/x8\/wallhaven-x83g1l.jpg",
            "thumbs": {
                "large": "https:\/\/th.wallhaven.cc\/lg\/x8\/x83g1l.jpg",
                "original": "https:\/\/th.wallhaven.cc\/orig\/x8\/x83g1l.jpg",
                "small": "https:\/\/th.wallhaven.cc\/small\/x8\/x83g1l.jpg"
            }
        },
        {
            "id": "dpmyxo",
            "url": "https:\/\/wallhaven.cc\/w\/dpmyxo",
            "short_url": "https:\/\/whvn.cc\/dpmyxo",
            "views": 217,
            "favorites": 1,
            "source": "",
            "purity": "sfw",
            "category": "general",
            "dimension_x": 4096,
            "dimension_y": 1755,
            "resolution": "4096x1755",
            "ratio": "2.33",
            "file_size": 1626733,
            "file_type": "image\/jpeg",
            "created_at": "2022-02-19 18:11:13",
            "colors": [
                "#000000",
                "#663300",
                "#996633",
                "#660000",
                "#424153"
            ],
            "path": "https:\/\/w.wallhaven.cc\/full\/dp\/wallhaven-dpmyxo.jpg",
            "thumbs": {
                "large": "https:\/\/th.wallhaven.cc\/lg\/dp\/dpmyxo.jpg",
                "original": "https:\/\/th.wallhaven.cc\/orig\/dp\/dpmyxo.jpg",
                "small": "https:\/\/th.wallhaven.cc\/small\/dp\/dpmyxo.jpg"
            }
        },
        {
            "id": "9m7px8",
            "url": "https:\/\/wallhaven.cc\/w\/9m7px8",
            "short_url": "https:\/\/whvn.cc\/9m7px8",
            "views": 107,
            "favorites": 2,
            "source": "",
            "purity": "sfw",
            "category": "general",
            "dimension_x": 3682,
            "dimension_y": 2071,
            "resolution": "3682x2071",
            "ratio": "1.78",
            "file_size": 1317865,
            "file_type": "image\/jpeg",
            "created_at": "2022-02-19 18:09:57",
            "colors": [
                "#996633",
                "#e7d8b1",
                "#cccccc",
                "#999999",
                "#cc6633"
            ],
            "path": "https:\/\/w.wallhaven.cc\/full\/9m\/wallhaven-9m7px8.jpg",
            "thumbs": {
                "large": "https:\/\/th.wallhaven.cc\/lg\/9m\/9m7px8.jpg",
                "original": "https:\/\/th.wallhaven.cc\/orig\/9m\/9m7px8.jpg",
                "small": "https:\/\/th.wallhaven.cc\/small\/9m\/9m7px8.jpg"
            }
        },
        {
            "id": "k7v531",
            "url": "https:\/\/wallhaven.cc\/w\/k7v531",
            "short_url": "https:\/\/whvn.cc\/k7v531",
            "views": 158,
            "favorites": 2,
            "source": "",
            "purity": "sfw",
            "category": "general",
            "dimension_x": 3840,
            "dimension_y": 2160,
            "resolution": "3840x2160",
            "ratio": "1.78",
            "file_size": 1133508,
            "file_type": "image\/jpeg",
            "created_at": "2022-02-19 18:09:57",
            "colors": [
                "#cccccc",
                "#ffffff",
                "#000000",
                "#fdadc7",
                "#663300"
            ],
            "path": "https:\/\/w.wallhaven.cc\/full\/k7\/wallhaven-k7v531.jpg",
            "thumbs": {
                "large": "https:\/\/th.wallhaven.cc\/lg\/k7\/k7v531.jpg",
                "original": "https:\/\/th.wallhaven.cc\/orig\/k7\/k7v531.jpg",
                "small": "https:\/\/th.wallhaven.cc\/small\/k7\/k7v531.jpg"
            }
        },
        {
            "id": "1kwy81",
            "url": "https:\/\/wallhaven.cc\/w\/1kwy81",
            "short_url": "https:\/\/whvn.cc\/1kwy81",
            "views": 120,
            "favorites": 1,
            "source": "",
            "purity": "sfw",
            "category": "general",
            "dimension_x": 3840,
            "dimension_y": 2160,
            "resolution": "3840x2160",
            "ratio": "1.78",
            "file_size": 642999,
            "file_type": "image\/jpeg",
            "created_at": "2022-02-19 18:09:57",
            "colors": [
                "#000000",
                "#996633",
                "#663300",
                "#424153",
                "#999999"
            ],
            "path": "https:\/\/w.wallhaven.cc\/full\/1k\/wallhaven-1kwy81.jpg",
            "thumbs": {
                "large": "https:\/\/th.wallhaven.cc\/lg\/1k\/1kwy81.jpg",
                "original": "https:\/\/th.wallhaven.cc\/orig\/1k\/1kwy81.jpg",
                "small": "https:\/\/th.wallhaven.cc\/small\/1k\/1kwy81.jpg"
            }
        },
        {
            "id": "rd513j",
            "url": "https:\/\/wallhaven.cc\/w\/rd513j",
            "short_url": "https:\/\/whvn.cc\/rd513j",
            "views": 109,
            "favorites": 1,
            "source": "",
            "purity": "sfw",
            "category": "general",
            "dimension_x": 3840,
            "dimension_y": 2160,
            "resolution": "3840x2160",
            "ratio": "1.78",
            "file_size": 1431128,
            "file_type": "image\/jpeg",
            "created_at": "2022-02-19 18:09:57",
            "colors": [
                "#999999",
                "#424153",
                "#996633",
                "#cccccc",
                "#000000"
            ],
            "path": "https:\/\/w.wallhaven.cc\/full\/rd\/wallhaven-rd513j.jpg",
            "thumbs": {
                "large": "https:\/\/th.wallhaven.cc\/lg\/rd\/rd513j.jpg",
                "original": "https:\/\/th.wallhaven.cc\/orig\/rd\/rd513j.jpg",
                "small": "https:\/\/th.wallhaven.cc\/small\/rd\/rd513j.jpg"
            }
        },
        {
            "id": "x83g5l",
            "url": "https:\/\/wallhaven.cc\/w\/x83g5l",
            "short_url": "https:\/\/whvn.cc\/x83g5l",
            "views": 130,
            "favorites": 4,
            "source": "",
            "purity": "sfw",
            "category": "anime",
            "dimension_x": 3840,
            "dimension_y": 2160,
            "resolution": "3840x2160",
            "ratio": "1.78",
            "file_size": 14306987,
            "file_type": "image\/jpeg",
            "created_at": "2022-02-19 17:53:41",
            "colors": [
                "#424153",
                "#000000",
                "#996633",
                "#cc6633",
                "#ffcc33"
            ],
            "path": "https:\/\/w.wallhaven.cc\/full\/x8\/wallhaven-x83g5l.jpg",
            "thumbs": {
                "large": "https:\/\/th.wallhaven.cc\/lg\/x8\/x83g5l.jpg",
                "original": "https:\/\/th.wallhaven.cc\/orig\/x8\/x83g5l.jpg",
                "small": "https:\/\/th.wallhaven.cc\/small\/x8\/x83g5l.jpg"
            }
        },
        {
            "id": "y83l1k",
            "url": "https:\/\/wallhaven.cc\/w\/y83l1k",
            "short_url": "https:\/\/whvn.cc\/y83l1k",
            "views": 279,
            "favorites": 20,
            "source": "",
            "purity": "sfw",
            "category": "anime",
            "dimension_x": 6000,
            "dimension_y": 2700,
            "resolution": "6000x2700",
            "ratio": "2.22",
            "file_size": 7009245,
            "file_type": "image\/jpeg",
            "created_at": "2022-02-19 15:36:30",
            "colors": [
                "#424153",
                "#999999",
                "#996633",
                "#cccccc",
                "#000000"
            ],
            "path": "https:\/\/w.wallhaven.cc\/full\/y8\/wallhaven-y83l1k.jpg",
            "thumbs": {
                "large": "https:\/\/th.wallhaven.cc\/lg\/y8\/y83l1k.jpg",
                "original": "https:\/\/th.wallhaven.cc\/orig\/y8\/y83l1k.jpg",
                "small": "https:\/\/th.wallhaven.cc\/small\/y8\/y83l1k.jpg"
            }
        },
        {
            "id": "3zy8m6",
            "url": "https:\/\/wallhaven.cc\/w\/3zy8m6",
            "short_url": "https:\/\/whvn.cc\/3zy8m6",
            "views": 122,
            "favorites": 2,
            "source": "",
            "purity": "sfw",
            "category": "anime",
            "dimension_x": 2387,
            "dimension_y": 1309,
            "resolution": "2387x1309",
            "ratio": "1.82",
            "file_size": 2881655,
            "file_type": "image\/jpeg",
            "created_at": "2022-02-19 15:36:30",
            "colors": [
                "#abbcda",
                "#ffffff",
                "#cccccc",
                "#66cccc",
                "#999999"
            ],
            "path": "https:\/\/w.wallhaven.cc\/full\/3z\/wallhaven-3zy8m6.jpg",
            "thumbs": {
                "large": "https:\/\/th.wallhaven.cc\/lg\/3z\/3zy8m6.jpg",
                "original": "https:\/\/th.wallhaven.cc\/orig\/3z\/3zy8m6.jpg",
                "small": "https:\/\/th.wallhaven.cc\/small\/3z\/3zy8m6.jpg"
            }
        }
    ],
    "meta": {
        "current_page": 1,
        "last_page": 15693,
        "per_page": 24,
        "total": 376621,
        "query": null,
        "seed": null
    }
}