{
    "data": [
        {
            "id": "2yxp16",
            "url": "https:\/\/wallhaven.cc\/w\/2yxp16",
            "short_url": "https:\/\/whvn.cc\/2yxp16",
            "views": 23163,
            "favorites": 366,
            "source": "https:\/\/www.artstation.com\/guillemhp",
            "purity": "sfw",
            "category": "general",
            "dimension_x": 3500,
            "dimension_y": 1961,
            "resolution": "3500x1961",
            "ratio": "1.78",
            "file_size": 1815426,
            "file_type": "image\/jpeg",
            "created_at": "2024-06-01 09:39:02",
            "colors": [
                "#424153",
                "#999999",
                "#996633",
                "#0066cc",
                "#0099cc"
            ],
            "path": "https:\/\/w.wallhaven.cc\/full\/2y\/wallhaven-2yxp16.jpg",
            "thumbs": {
                "large": "https:\/\/th.wallhaven.cc\/lg\/2y\/2yxp16.jpg",
                "original": "https:\/\/th.wallhaven.cc\/orig\/2y\/2yxp16.jpg",
                "small": "https:\/\/th.wallhaven.cc\/small\/2y\/2yxp16.jpg"
            }
        },
        {
            "id": "yxl66g",
            "url": "https:\/\/wallhaven.cc\/w\/yxl66g",
            "short_url": "https:\/\/whvn.cc\/yxl66g",
            "views": 13303,
            "favorites": 182,
            "source": "https:\/\/discuss.kde.org\/t\/wallpaper-submission-3-3-hexworld\/",
            "purity": "sfw",
            "category": "general",
            "dimension_x": 5120,
            "dimension_y": 2880,
            "resolution": "5120x2880",
            "ratio": "1.78",
            "file_size": 7520788,
            "file_type": "image\/jpeg",
            "created_at": "2024-05-25 00:30:34",
            "colors": [
                "#0099cc",
                "#999999",
                "#336600",
                "#cccc33",
                "#424153"
            ],
            "path": "https:\/\/w.wallhaven.cc\/full\/yx\/wallhaven-yxl66g.jpg",
            "thumbs": {
                "large": "https:\/\/th.wallhaven.cc\/lg\/yx\/yxl66g.jpg",
                "original": "https:\/\/th.wallhaven.cc\/orig\/yx\/yxl66g.jpg",
                "small": "https:\/\/th.wallhaven.cc\/small\/yx\/yxl66g.jpg"
            }
        },
        {
            "id": "gpg5ql",
            "url": "https:\/\/wallhaven.cc\/w\/gpg5ql",
            "short_url": "https:\/\/whvn.cc\/gpg5ql",
            "views": 10393,
            "favorites": 126,
            "source": "",
            "purity": "sfw",
            "category": "general",
            "dimension_x": 3854,
            "dimension_y": 1975,
            "resolution": "3854x1975",
            "ratio": "1.95",
            "file_size": 748353,
            "file_type": "image\/jpeg",
            "created_at": "2024-06-10 20:08:47",
            "colors": [
                "#000000",
                "#424153",
                "#999999",
                "#cccccc",
                "#ffffff"
            ],
            "path": "https:\/\/w.wallhaven.cc\/full\/gp\/wallhaven-gpg5ql.jpg",
            "thumbs": {
                "large": "https:\/\/th.wallhaven.cc\/lg\/gp\/gpg5ql.jpg",
                "original": "https:\/\/th.wallhaven.cc\/orig\/gp\/gpg5ql.jpg",
                "small": "https:\/\/th.wallhaven.cc\/small\/gp\/gpg5ql.jpg"
            }
        },
        {
            "id": "wekp5x",
            "url": "https:\/\/wallhaven.cc\/w\/wekp5x",
            "short_url": "https:\/\/whvn.cc\/wekp5x",
            "views": 9167,
            "favorites": 200,
            "source": "https:\/\/www.artstation.com\/guillemhp",
            "purity": "sfw",
            "category": "general",
            "dimension_x": 3500,
            "dimension_y": 1961,
            "resolution": "3500x1961",
            "ratio": "1.78",
            "file_size": 1279116,
            "file_type": "image\/jpeg",
            "created_at": "2024-06-01 09:39:02",
            "colors": [
                "#424153",
                "#000000",
                "#999999",
                "#e7d8b1",
                "#996633"
            ],
            "path": "https:\/\/w.wallhaven.cc\/full\/we\/wallhaven-wekp5x.jpg",
            "thumbs": {
                "large": "https:\/\/th.wallhaven.cc\/lg\/we\/wekp5x.jpg",
                "original": "https:\/\/th.wallhaven.cc\/orig\/we\/wekp5x.jpg",
                "small": "https:\/\/th.wallhaven.cc\/small\/we\/wekp5x.jpg"
            }
        },
        {
            "id": "exqg9w",
            "url": "https:\/\/wallhaven.cc\/w\/exqg9w",
            "short_url": "https:\/\/whvn.cc\/exqg9w",
            "views": 8670,
            "favorites": 185,
            "source": "",
            "purity": "sfw",
            "category": "general",
            "dimension_x": 3218,
            "dimension_y": 4724,
            "resolution": "3218x4724",
            "ratio": "0.68",
            "file_size": 6566818,
            "file_type": "image\/jpeg",
            "created_at": "2024-05-24 11:03:41",
            "colors": [
                "#424153",
                "#999999",
                "#000000",
                "#abbcda",
                "#996633"
            ],
            "path": "https:\/\/w.wallhaven.cc\/full\/ex\/wallhaven-exqg9w.jpg",
            "thumbs": {
                "large": "https:\/\/th.wallhaven.cc\/lg\/ex\/exqg9w.jpg",
                "original": "https:\/\/th.wallhaven.cc\/orig\/ex\/exqg9w.jpg",
                "small": "https:\/\/th.wallhaven.cc\/small\/ex\/exqg9w.jpg"
            }
        },
        {
            "id": "p9pz1e",
            "url": "https:\/\/wallhaven.cc\/w\/p9pz1e",
            "short_url": "https:\/\/whvn.cc\/p9pz1e",
            "views": 7840,
            "favorites": 90,
            "source": "",
            "purity": "sfw",
            "category": "anime",
            "dimension_x": 4096,
            "dimension_y": 2210,
            "resolution": "4096x2210",
            "ratio": "1.85",
            "file_size": 938150,
            "file_type": "image\/jpeg",
            "created_at": "2024-05-23 00:40:42",
            "colors": [
                "#424153",
                "#000000",
                "#996633",
                "#999999",
                "#e7d8b1"
            ],
            "path": "https:\/\/w.wallhaven.cc\/full\/p9\/wallhaven-p9pz1e.jpg",
            "thumbs": {
                "large": "https:\/\/th.wallhaven.cc\/lg\/p9\/p9pz1e.jpg",
                "original": "https:\/\/th.wallhaven.cc\/orig\/p9\/p9pz1e.jpg",
                "small": "https:\/\/th.wallhaven.cc\/small\/p9\/p9pz1e.jpg"
            }
        },
        {
            "id": "p9pry9",
            "url": "https:\/\/wallhaven.cc\/w\/p9pry9",
            "short_url": "https:\/\/whvn.cc\/p9pry9",
            "views": 7834,
            "favorites": 142,
            "source": "",
            "purity": "sfw",
            "category": "general",
            "dimension_x": 1920,
            "dimension_y": 1080,
            "resolution": "1920x1080",
            "ratio": "1.78",
            "file_size": 4172089,
            "file_type": "image\/png",
            "created_at": "2024-06-01 15:49:52",
            "colors": [
                "#000000",
                "#424153",
                "#996633",
                "#663300",
                "#993399"
            ],
            "path": "https:\/\/w.wallhaven.cc\/full\/p9\/wallhaven-p9pry9.png",
            "thumbs": {
                "large": "https:\/\/th.wallhaven.cc\/lg\/p9\/p9pry9.jpg",
                "original": "https:\/\/th.wallhaven.cc\/orig\/p9\/p9pry9.jpg",
                "small": "https:\/\/th.wallhaven.cc\/small\/p9\/p9pry9.jpg"
            }
        },
        {
            "id": "85m7go",
            "url": "https:\/\/wallhaven.cc\/w\/85m7go",
            "short_url": "https:\/\/whvn.cc\/85m7go",
            "views": 7760,
            "favorites": 164,
            "source": "",
            "purity": "sfw",
            "category": "general",
            "dimension_x": 3840,
            "dimension_y": 2160,
            "resolution": "3840x2160",
            "ratio": "1.78",
            "file_size": 16422429,
            "file_type": "image\/png",
            "created_at": "2024-06-02 09:33:42",
            "colors": [
                "#000000",
                "#66cccc",
                "#0099cc",
                "#ffcc33",
                "#e7d8b1"
            ],
            "path": "https:\/\/w.wallhaven.cc\/full\/85\/wallhaven-85m7go.png",
            "thumbs": {
                "large": "https:\/\/th.wallhaven.cc\/lg\/85\/85m7go.jpg",
                "original": "https:\/\/th.wallhaven.cc\/orig\/85\/85m7go.jpg",
                "small": "https:\/\/th.wallhaven.cc\/small\/85\/85m7go.jpg"
            }
        },
        {
            "id": "p9pro3",
            "url": "https:\/\/wallhaven.cc\/w\/p9pro3",
            "short_url": "https:\/\/whvn.cc\/p9pro3",
            "views": 7602,
            "favorites": 163,
            "source": "",
            "purity": "sfw",
            "category": "general",
            "dimension_x": 8882,
            "dimension_y": 4926,
            "resolution": "8882x4926",
            "ratio": "1.8",
            "file_size": 8537807,
            "file_type": "image\/jpeg",
            "created_at": "2024-06-01 09:03:33",
            "colors": [
                "#424153",
                "#663399",
                "#000000",
                "#999999",
                "#996633"
            ],
            "path": "https:\/\/w.wallhaven.cc\/full\/p9\/wallhaven-p9pro3.jpg",
            "thumbs": {
                "large": "https:\/\/th.wallhaven.cc\/lg\/p9\/p9pro3.jpg",
                "original": "https:\/\/th.wallhaven.cc\/orig\/p9\/p9pro3.jpg",
                "small": "https:\/\/th.wallhaven.cc\/small\/p9\/p9pro3.jpg"
            }
        },
        {
            "id": "rrx1em",
            "url": "https:\/\/wallhaven.cc\/w\/rrx1em",
            "short_url": "https:\/\/whvn.cc\/rrx1em",
            "views": 7530,
            "favorites": 73,
            "source": "",
            "purity": "sfw",
            "category": "general",
            "dimension_x": 7842,
            "dimension_y": 4123,
            "resolution": "7842x4123",
            "ratio": "1.9",
            "file_size": 334473,
            "file_type": "image\/jpeg",
            "created_at": "2024-05-22 14:08:58",
            "colors": [
                "#000000",
                "#77cc33",
                "#cc3333",
                "#f5dd01",
                "#0099cc"
            ],
            "path": "https:\/\/w.wallhaven.cc\/full\/rr\/wallhaven-rrx1em.jpg",
            "thumbs": {
                "large": "https:\/\/th.wallhaven.cc\/lg\/rr\/rrx1em.jpg",
                "original": "https:\/\/th.wallhaven.cc\/orig\/rr\/rrx1em.jpg",
                "small": "https:\/\/th.wallhaven.cc\/small\/rr\/rrx1em.jpg"
            }
        },
        {
            "id": "gpkgld",
            "url": "https:\/\/wallhaven.cc\/w\/gpkgld",
            "short_url": "https:\/\/whvn.cc\/gpkgld",
            "views": 7424,
            "favorites": 80,
            "source": "https:\/\/x.com\/Masa8a\/status\/1793369989170573461",
            "purity": "sfw",
            "category": "general",
            "dimension_x": 3840,
            "dimension_y": 2160,
            "resolution": "3840x2160",
            "ratio": "1.78",
            "file_size": 9266549,
            "file_type": "image\/png",
            "created_at": "2024-05-22 22:26:02",
            "colors": [
                "#000000",
                "#333399",
                "#424153",
                "#663399",
                "#999999"
            ],
            "path": "https:\/\/w.wallhaven.cc\/full\/gp\/wallhaven-gpkgld.png",
            "thumbs": {
                "large": "https:\/\/th.wallhaven.cc\/lg\/gp\/gpkgld.jpg",
                "original": "https:\/\/th.wallhaven.cc\/orig\/gp\/gpkgld.jpg",
                "small": "https:\/\/th.wallhaven.cc\/small\/gp\/gpkgld.jpg"
            }
        },
        {
            "id": "1pevkg",
            "url": "https:\/\/wallhaven.cc\/w\/1pevkg",
            "short_url": "https:\/\/whvn.cc\/1pevkg",
            "views": 7339,
            "favorites": 110,
            "source": "https:\/\/x.com\/ELDENRING\/status\/1793643208800436397",
            "purity": "sfw",
            "category": "general",
            "dimension_x": 2800,
            "dimension_y": 4000,
            "resolution": "2800x4000",
            "ratio": "0.7",
            "file_size": 15443655,
            "file_type": "image\/png",
            "created_at": "2024-05-23 15:27:27",
            "colors": [
                "#000000",
                "#424153",
                "#cccccc",
                "#999999",
                "#e7d8b1"
            ],
            "path": "https:\/\/w.wallhaven.cc\/full\/1p\/wallhaven-1pevkg.png",
            "thumbs": {
                "large": "https:\/\/th.wallhaven.cc\/lg\/1p\/1pevkg.jpg",
                "original": "https:\/\/th.wallhaven.cc\/orig\/1p\/1pevkg.jpg",
                "small": "https:\/\/th.wallhaven.cc\/small\/1p\/1pevkg.jpg"
            }
        },
        {
            "id": "6d13yw",
            "url": "https:\/\/wallhaven.cc\/w\/6d13yw",
            "short_url": "https:\/\/whvn.cc\/6d13yw",
            "views": 7203,
            "favorites": 505,
            "source": "",
            "purity": "sketchy",
            "category": "people",
            "dimension_x": 1092,
            "dimension_y": 1440,
            "resolution": "1092x1440",
            "ratio": "0.76",
            "file_size": 721728,
            "file_type": "image\/jpeg",
            "created_at": "2024-05-24 09:37:01",
            "colors": [
                "#424153",
                "#999999",
                "#996633",
                "#e7d8b1",
                "#fdadc7"
            ],
            "path": "https:\/\/w.wallhaven.cc\/full\/6d\/wallhaven-6d13yw.jpg",
            "thumbs": {
                "large": "https:\/\/th.wallhaven.cc\/lg\/6d\/6d13yw.jpg",
                "original": "https:\/\/th.wallhaven.cc\/orig\/6d\/6d13yw.jpg",
                "small": "https:\/\/th.wallhaven.cc\/small\/6d\/6d13yw.jpg"
            }
        },
        {
            "id": "x6yrez",
            "url": "https:\/\/wallhaven.cc\/w\/x6yrez",
            "short_url": "https:\/\/whvn.cc\/x6yrez",
            "views": 6751,
            "favorites": 120,
            "source": "",
            "purity": "sfw",
            "category": "anime",
            "dimension_x": 3840,
            "dimension_y": 2160,
            "resolution": "3840x2160",
            "ratio": "1.78",
            "file_size": 3539398,
            "file_type": "image\/jpeg",
            "created_at": "2024-05-28 00:44:58",
            "colors": [
                "#000000",
                "#424153",
                "#333399",
                "#0066cc",
                "#0099cc"
            ],
            "path": "https:\/\/w.wallhaven.cc\/full\/x6\/wallhaven-x6yrez.jpg",
            "thumbs": {
                "large": "https:\/\/th.wallhaven.cc\/lg\/x6\/x6yrez.jpg",
                "original": "https:\/\/th.wallhaven.cc\/orig\/x6\/x6yrez.jpg",
                "small": "https:\/\/th.wallhaven.cc\/small\/x6\/x6yrez.jpg"
            }
        },
        {
            "id": "p9pr93",
            "url": "https:\/\/wallhaven.cc\/w\/p9pr93",
            "short_url": "https:\/\/whvn.cc\/p9pr93",
            "views": 6544,
            "favorites": 124,
            "source": "https:\/\/www.pixiv.net\/en\/artworks\/119095060",
            "purity": "sfw",
            "category": "anime",
            "dimension_x": 5760,
            "dimension_y": 3240,
            "resolution": "5760x3240",
            "ratio": "1.78",
            "file_size": 5991291,
            "file_type": "image\/jpeg",
            "created_at": "2024-06-01 08:15:43",
            "colors": [
                "#424153",
                "#999999",
                "#abbcda",
                "#cccccc",
                "#663399"
            ],
            "path": "https:\/\/w.wallhaven.cc\/full\/p9\/wallhaven-p9pr93.jpg",
            "thumbs": {
                "large": "https:\/\/th.wallhaven.cc\/lg\/p9\/p9pr93.jpg",
                "original": "https:\/\/th.wallhaven.cc\/orig\/p9\/p9pr93.jpg",
                "small": "https:\/\/th.wallhaven.cc\/small\/p9\/p9pr93.jpg"
            }
        },
        {
            "id": "wekg67",
            "url": "https:\/\/wallhaven.cc\/w\/wekg67",
            "short_url": "https:\/\/whvn.cc\/wekg67",
            "views": 6487,
            "favorites": 69,
            "source": "",
            "purity": "sfw",
            "category": "general",
            "dimension_x": 3840,
            "dimension_y": 2160,
            "resolution": "3840x2160",
            "ratio": "1.78",
            "file_size": 10755342,
            "file_type": "image\/png",
            "created_at": "2024-05-24 01:38:51",
            "colors": [
                "#000000",
                "#424153",
                "#999999",
                "#663300",
                "#cc3333"
            ],
            "path": "https:\/\/w.wallhaven.cc\/full\/we\/wallhaven-wekg67.png",
            "thumbs": {
                "large": "https:\/\/th.wallhaven.cc\/lg\/we\/wekg67.jpg",
                "original": "https:\/\/th.wallhaven.cc\/orig\/we\/wekg67.jpg",
                "small": "https:\/\/th.wallhaven.cc\/small\/we\/wekg67.jpg"
            }
        },
        {
            "id": "l8p37q",
            "url": "https:\/\/wallhaven.cc\/w\/l8p37q",
            "short_url": "https:\/\/whvn.cc\/l8p37q",
            "views": 6292,
            "favorites": 91,
            "source": "",
            "purity": "sfw",
            "category": "general",
            "dimension_x": 1920,
            "dimension_y": 3025,
            "resolution": "1920x3025",
            "ratio": "0.63",
            "file_size": 466941,
            "file_type": "image\/jpeg",
            "created_at": "2024-06-06 07:38:33",
            "colors": [
                "#ea4c88",
                "#993399",
                "#424153",
                "#cc3333",
                "#fdadc7"
            ],
            "path": "https:\/\/w.wallhaven.cc\/full\/l8\/wallhaven-l8p37q.jpg",
            "thumbs": {
                "large": "https:\/\/th.wallhaven.cc\/lg\/l8\/l8p37q.jpg",
                "original": "https:\/\/th.wallhaven.cc\/orig\/l8\/l8p37q.jpg",
                "small": "https:\/\/th.wallhaven.cc\/small\/l8\/l8p37q.jpg"
            }
        },
        {
            "id": "p9z9qm",
            "url": "https:\/\/wallhaven.cc\/w\/p9z9qm",
            "short_url": "https:\/\/whvn.cc\/p9z9qm",
            "views": 6079,
            "favorites": 123,
            "source": "https:\/\/www.pixiv.net\/en\/users\/54867079",
            "purity": "sfw",
            "category": "general",
            "dimension_x": 3840,
            "dimension_y": 2160,
            "resolution": "3840x2160",
            "ratio": "1.78",
            "file_size": 5647947,
            "file_type": "image\/jpeg",
            "created_at": "2024-06-08 12:49:43",
            "colors": [
                "#424153",
                "#000000",
                "#996633",
                "#663300",
                "#999999"
            ],
            "path": "https:\/\/w.wallhaven.cc\/full\/p9\/wallhaven-p9z9qm.jpg",
            "thumbs": {
                "large": "https:\/\/th.wallhaven.cc\/lg\/p9\/p9z9qm.jpg",
                "original": "https:\/\/th.wallhaven.cc\/orig\/p9\/p9z9qm.jpg",
                "small": "https:\/\/th.wallhaven.cc\/small\/p9\/p9z9qm.jpg"
            }
        },
        {
            "id": "1pevqg",
            "url": "https:\/\/wallhaven.cc\/w\/1pevqg",
            "short_url": "https:\/\/whvn.cc\/1pevqg",
            "views": 6045,
            "favorites": 115,
            "source": "",
            "purity": "sketchy",
            "category": "general",
            "dimension_x": 3840,
            "dimension_y": 1620,
            "resolution": "3840x1620",
            "ratio": "2.37",
            "file_size": 4692760,
            "file_type": "image\/jpeg",
            "created_at": "2024-05-23 18:18:57",
            "colors": [
                "#000000",
                "#424153",
                "#663300",
                "#996633",
                "#999999"
            ],
            "path": "https:\/\/w.wallhaven.cc\/full\/1p\/wallhaven-1pevqg.jpg",
            "thumbs": {
                "large": "https:\/\/th.wallhaven.cc\/lg\/1p\/1pevqg.jpg",
                "original": "https:\/\/th.wallhaven.cc\/orig\/1p\/1pevqg.jpg",
                "small": "https:\/\/th.wallhaven.cc\/small\/1p\/1pevqg.jpg"
            }
        },
        {
            "id": "l8o5jq",
            "url": "https:\/\/wallhaven.cc\/w\/l8o5jq",
            "short_url": "https:\/\/whvn.cc\/l8o5jq",
            "views": 5870,
            "favorites": 148,
            "source": "https:\/\/x.com\/all_nobori\/status\/1796437857252630719",
            "purity": "sfw",
            "category": "anime",
            "dimension_x": 3840,
            "dimension_y": 2160,
            "resolution": "3840x2160",
            "ratio": "1.78",
            "file_size": 17613665,
            "file_type": "image\/png",
            "created_at": "2024-05-31 18:07:38",
            "colors": [
                "#999999",
                "#e7d8b1",
                "#996633",
                "#663300",
                "#424153"
            ],
            "path": "https:\/\/w.wallhaven.cc\/full\/l8\/wallhaven-l8o5jq.png",
            "thumbs": {
                "large": "https:\/\/th.wallhaven.cc\/lg\/l8\/l8o5jq.jpg",
                "original": "https:\/\/th.wallhaven.cc\/orig\/l8\/l8o5jq.jpg",
                "small": "https:\/\/th.wallhaven.cc\/small\/l8\/l8o5jq.jpg"
            }
        },
        {
            "id": "p9p1o9",
            "url": "https:\/\/wallhaven.cc\/w\/p9p1o9",
            "short_url": "https:\/\/whvn.cc\/p9p1o9",
            "views": 5687,
            "favorites": 79,
            "source": "",
            "purity": "sfw",
            "category": "general",
            "dimension_x": 8179,
            "dimension_y": 5156,
            "resolution": "8179x5156",
            "ratio": "1.59",
            "file_size": 607639,
            "file_type": "image\/jpeg",
            "created_at": "2024-05-23 17:49:49",
            "colors": [
                "#000000",
                "#660000",
                "#cc3333",
                "#990000",
                "#cc0000"
            ],
            "path": "https:\/\/w.wallhaven.cc\/full\/p9\/wallhaven-p9p1o9.jpg",
            "thumbs": {
                "large": "https:\/\/th.wallhaven.cc\/lg\/p9\/p9p1o9.jpg",
                "original": "https:\/\/th.wallhaven.cc\/orig\/p9\/p9p1o9.jpg",
                "small": "https:\/\/th.wallhaven.cc\/small\/p9\/p9p1o9.jpg"
            }
        },
        {
            "id": "85wvv2",
            "url": "https:\/\/wallhaven.cc\/w\/85wvv2",
            "short_url": "https:\/\/whvn.cc\/85wvv2",
            "views": 5625,
            "favorites": 40,
            "source": "",
            "purity": "sfw",
            "category": "general",
            "dimension_x": 3840,
            "dimension_y": 2160,
            "resolution": "3840x2160",
            "ratio": "1.78",
            "file_size": 12054295,
            "file_type": "image\/png",
            "created_at": "2024-05-25 01:03:13",
            "colors": [
                "#000000",
                "#424153",
                "#999999",
                "#cccccc",
                "#ffffff"
            ],
            "path": "https:\/\/w.wallhaven.cc\/full\/85\/wallhaven-85wvv2.png",
            "thumbs": {
                "large": "https:\/\/th.wallhaven.cc\/lg\/85\/85wvv2.jpg",
                "original": "https:\/\/th.wallhaven.cc\/orig\/85\/85wvv2.jpg",
                "small": "https:\/\/th.wallhaven.cc\/small\/85\/85wvv2.jpg"
            }
        },
        {
            "id": "1py3k3",
            "url": "https:\/\/wallhaven.cc\/w\/1py3k3",
            "short_url": "https:\/\/whvn.cc\/1py3k3",
            "views": 5594,
            "favorites": 75,
            "source": "https:\/\/www.pixiv.net\/artworks\/115490267",
            "purity": "sfw",
            "category": "anime",
            "dimension_x": 1591,
            "dimension_y": 2795,
            "resolution": "1591x2795",
            "ratio": "0.57",
            "file_size": 8693043,
            "file_type": "image\/png",
            "created_at": "2024-06-04 10:13:40",
            "colors": [
                "#424153",
                "#999999",
                "#cccccc",
                "#000000",
                "#996633"
            ],
            "path": "https:\/\/w.wallhaven.cc\/full\/1p\/wallhaven-1py3k3.png",
            "thumbs": {
                "large": "https:\/\/th.wallhaven.cc\/lg\/1p\/1py3k3.jpg",
                "original": "https:\/\/th.wallhaven.cc\/orig\/1p\/1py3k3.jpg",
                "small": "https:\/\/th.wallhaven.cc\/small\/1p\/1py3k3.jpg"
            }
        },
        {
            "id": "jxjm1m",
            "url": "https:\/\/wallhaven.cc\/w\/jxjm1m",
            "short_url": "https:\/\/whvn.cc\/jxjm1m",
            "views": 5487,
            "favorites": 119,
            "source": "https:\/\/www.artstation.com\/artwork\/Kemx39",
            "purity": "sfw",
            "category": "general",
            "dimension_x": 3840,
            "dimension_y": 2160,
            "resolution": "3840x2160",
            "ratio": "1.78",
            "file_size": 13953260,
            "file_type": "image\/png",
            "created_at": "2024-05-31 16:05:20",
            "colors": [
                "#424153",
                "#000000",
                "#333399",
                "#663300",
                "#996633"
            ],
            "path": "https:\/\/w.wallhaven.cc\/full\/jx\/wallhaven-jxjm1m.png",
            "thumbs": {
                "large": "https:\/\/th.wallhaven.cc\/lg\/jx\/jxjm1m.jpg",
                "original": "https:\/\/th.wallhaven.cc\/orig\/jx\/jxjm1m.jpg",
                "small": "https:\/\/th.wallhaven.cc\/small\/jx\/jxjm1m.jpg"
            }
        }
    ],
    "meta": {
        "current_page": 1,
        "last_page": 171,
        "per_page": 24,
        "total": 4101,
        "query": "",
        "seed": null
    }
}